<?xml version="1.0" encoding="UTF-8" standalone="no"?>
<svg
   xmlns:dc="http://purl.org/dc/elements/1.1/"
   xmlns:cc="http://creativecommons.org/ns#"
   xmlns:rdf="http://www.w3.org/1999/02/22-rdf-syntax-ns#"
   xmlns:svg="http://www.w3.org/2000/svg"
   xmlns="http://www.w3.org/2000/svg"
   xmlns:xlink="http://www.w3.org/1999/xlink"
   xmlns:sodipodi="http://sodipodi.sourceforge.net/DTD/sodipodi-0.dtd"
   xmlns:inkscape="http://www.inkscape.org/namespaces/inkscape"
   width="70.203644mm"
   height="38.33432mm"
   viewBox="0 0 70.203644 38.33432"
   version="1.1"
   id="svg3098"
   inkscape:version="1.0beta2 (998e94e, 2020-02-11)"
   sodipodi:docname="logo_background.svg">
  <defs
     id="defs3092">
    <clipPath
       id="clipPath3964"
       clipPathUnits="userSpaceOnUse">
      <rect
         style="fill:none;fill-opacity:0.4;stroke:#000000;stroke-width:0.2"
         id="rect3966"
         width="70.198898"
         height="38.330341"
         x="112.67001"
         y="120.25818" />
    </clipPath>
    <linearGradient
       gradientTransform="matrix(1.0000662,0,0,0.99465144,-235.42794,-3.2900248)"
       gradientUnits="userSpaceOnUse"
       y2="130.01184"
       x2="177.71742"
       y1="155.97937"
       x1="177.69186"
       id="linearGradient4190"
       xlink:href="#linearGradient4188"
       inkscape:collect="always" />
    <linearGradient
       id="linearGradient4188"
       inkscape:collect="always">
      <stop
         id="stop4184"
         offset="0"
         style="stop-color:#ffffff;stop-opacity:0.12449799" />
      <stop
         id="stop4186"
         offset="1"
         style="stop-color:#ffffff;stop-opacity:0.49799198" />
    </linearGradient>
  </defs>
  <sodipodi:namedview
     id="base"
     pagecolor="#ffffff"
     bordercolor="#666666"
     borderopacity="1.0"
     inkscape:pageopacity="0.0"
     inkscape:pageshadow="2"
     inkscape:zoom="2.6004703"
     inkscape:cx="132.66831"
     inkscape:cy="72.442795"
     inkscape:document-units="mm"
     inkscape:current-layer="layer1"
     inkscape:document-rotation="0"
     showgrid="false"
     inkscape:window-width="1274"
     inkscape:window-height="681"
     inkscape:window-x="526"
     inkscape:window-y="201"
     inkscape:window-maximized="0" />
  <metadata
     id="metadata3095">
    <rdf:RDF>
      <cc:Work
         rdf:about="">
        <dc:format>image/svg+xml</dc:format>
        <dc:type
           rdf:resource="http://purl.org/dc/dcmitype/StillImage" />
        <dc:title />
      </cc:Work>
    </rdf:RDF>
  </metadata>
  <g
     inkscape:label="Layer 1"
     inkscape:groupmode="layer"
     id="layer1"
     transform="translate(-52.58865,-116.14832)">
    <g
       transform="matrix(-1,0,0,1,182.04138,3.7446462)"
       id="g1805">
      <path
         sodipodi:nodetypes="cccccc"
         inkscape:export-ydpi="578.89001"
         inkscape:export-xdpi="578.89001"
         style="display:inline;overflow:visible;visibility:visible;fill:none;fill-opacity:1;stroke:#000000;stroke-width:0.264583;stroke-linecap:round;stroke-linejoin:round;stroke-miterlimit:4;stroke-dasharray:none;stroke-dashoffset:0;stroke-opacity:1;marker:none;enable-background:accumulate"
         d="m 86.211671,137.7523 -0.0099,-5.34028 -5.09487,-1.656 m 0,0 2.6e-4,5.35643 5.10451,1.63985"
         id="path2319"
         inkscape:connector-curvature="0" />
      <path
         sodipodi:nodetypes="ccccc"
         inkscape:export-ydpi="578.89001"
         inkscape:export-xdpi="578.89001"
         style="display:inline;overflow:visible;visibility:visible;fill:none;fill-opacity:1;stroke:#000000;stroke-width:0.264583;stroke-linecap:round;stroke-linejoin:round;stroke-miterlimit:4;stroke-dasharray:none;stroke-dashoffset:0;stroke-opacity:1;marker:none;enable-background:accumulate"
         d="m 81.106961,130.75604 5.09559,1.65467 3.14935,-4.33378 -5.09434,-1.65498 -3.1506,4.33409"
         id="path2321"
         inkscape:connector-curvature="0" />
      <path
         sodipodi:nodetypes="ccccc"
         inkscape:export-ydpi="578.89001"
         inkscape:export-xdpi="578.89001"
         style="display:inline;overflow:visible;visibility:visible;fill:none;fill-opacity:1;stroke:#000000;stroke-width:0.264583;stroke-linecap:round;stroke-linejoin:round;stroke-miterlimit:4;stroke-dasharray:none;stroke-dashoffset:0;stroke-opacity:1;marker:none;enable-background:accumulate"
         d="m 102.69354,137.76791 -5.094188,-1.65547 -0.0014,-5.35823 5.095018,1.65646 5.6e-4,5.35724"
         id="path2323"
         inkscape:connector-curvature="0" />
      <path
         sodipodi:nodetypes="ccccc"
         inkscape:export-ydpi="578.89001"
         inkscape:export-xdpi="578.89001"
         style="display:inline;overflow:visible;visibility:visible;fill:none;fill-opacity:1;stroke:#000000;stroke-width:0.264583;stroke-linecap:round;stroke-linejoin:round;stroke-miterlimit:4;stroke-dasharray:none;stroke-dashoffset:0;stroke-opacity:1;marker:none;enable-background:accumulate"
         d="m 97.597982,130.7542 3.149828,-4.33377 5.07662,1.65574 -3.13005,4.33251 z"
         id="path2325"
         inkscape:connector-curvature="0" />
      <path
         inkscape:export-ydpi="578.89001"
         inkscape:export-xdpi="578.89001"
         style="display:inline;overflow:visible;visibility:visible;fill:none;fill-opacity:1;stroke:#000000;stroke-width:0.264583;stroke-linecap:round;stroke-linejoin:round;stroke-miterlimit:4;stroke-dasharray:none;stroke-dashoffset:0;stroke-opacity:1;marker:none;enable-background:accumulate"
         d="m 89.353101,128.07902 5.095601,-1.65467 3.14935,4.33378 -5.09434,1.65498 z"
         id="path2327"
         inkscape:connector-curvature="0" />
      <path
         sodipodi:nodetypes="cccccc"
         inkscape:export-ydpi="578.89001"
         inkscape:export-xdpi="578.89001"
         style="display:inline;overflow:visible;visibility:visible;fill:none;fill-opacity:1;stroke:#000000;stroke-width:0.264583;stroke-linecap:round;stroke-linejoin:round;stroke-miterlimit:4;stroke-dasharray:none;stroke-dashoffset:0;stroke-opacity:1;marker:none;enable-background:accumulate"
         d="m 92.5038,137.76953 9.53e-4,-5.35753 5.09487,-1.656 -2.6e-4,5.35643 m 0,0 -5.09555,1.6571"
         id="path2329"
         inkscape:connector-curvature="0" />
      <path
         sodipodi:nodetypes="ccccc"
         inkscape:export-ydpi="578.89001"
         inkscape:export-xdpi="578.89001"
         inkscape:connector-curvature="0"
         style="display:inline;overflow:visible;visibility:visible;fill:none;fill-opacity:1;stroke:#000000;stroke-width:0.264583;stroke-linecap:butt;stroke-linejoin:round;stroke-miterlimit:4;stroke-dasharray:none;stroke-dashoffset:0;stroke-opacity:1;marker:none;enable-background:accumulate"
         d="m 86.211671,137.7523 -9.5e-4,-5.35753 3.15009,-4.33509 0.001,5.35853 -3.15014,4.33409"
         id="path2331" />
      <path
         sodipodi:nodetypes="ccccc"
         inkscape:export-ydpi="578.89001"
         inkscape:export-xdpi="578.89001"
         inkscape:connector-curvature="0"
         style="display:inline;overflow:visible;visibility:visible;fill:none;fill-opacity:1;stroke:#000000;stroke-width:0.264583;stroke-linecap:round;stroke-linejoin:round;stroke-miterlimit:4;stroke-dasharray:none;stroke-dashoffset:0;stroke-opacity:1;marker:none;enable-background:accumulate"
         d="m 92.502052,137.75696 -3.149851,-4.33377 3.7e-4,-5.35874 3.150851,4.33428 -0.0014,5.35823"
         id="path2333" />
      <path
         sodipodi:nodetypes="cccccc"
         inkscape:export-ydpi="578.89001"
         inkscape:export-xdpi="578.89001"
         inkscape:connector-curvature="0"
         style="display:inline;overflow:visible;visibility:visible;fill:none;fill-opacity:1;stroke:#000000;stroke-width:0.264583;stroke-linecap:round;stroke-linejoin:round;stroke-miterlimit:4;stroke-dasharray:none;stroke-dashoffset:0;stroke-opacity:1;marker:none;enable-background:accumulate"
         d="m 102.69352,137.76791 -0.0192,-5.35664 3.15009,-4.3351 0.001,5.35853 m 0,0 -3.13191,4.33321"
         id="path2335" />
    </g>
    <g
       style="stroke:#6b4d62;stroke-opacity:1"
       clip-path="url(#clipPath3964)"
       id="g2699"
       inkscape:export-xdpi="578.89001"
       inkscape:export-ydpi="578.89001"
       transform="matrix(-1,0,0,1,235.46231,-4.1058838)">
      <path
         style="display:inline;overflow:visible;visibility:visible;fill:none;fill-opacity:1;stroke:#6b4d62;stroke-width:0.264583;stroke-linecap:round;stroke-linejoin:round;stroke-miterlimit:4;stroke-dasharray:none;stroke-dashoffset:0;stroke-opacity:1;marker:none;enable-background:accumulate"
         d="m 185.96525,121.97173 3.1483,4.33489 -3.14846,4.33441 -3.14822,-4.33358 z"
         id="path8533-9"
         inkscape:connector-curvature="0" />
      <path
         id="path8565-5"
         d="m 189.11596,126.30937 9.5e-4,5.35751 -3.15009,4.33511 -0.001,-5.35854 z"
         style="display:inline;overflow:visible;visibility:visible;fill:none;fill-opacity:1;stroke:#6b4d62;stroke-width:0.264583;stroke-linecap:round;stroke-linejoin:round;stroke-miterlimit:4;stroke-dasharray:none;stroke-dashoffset:0;stroke-opacity:1;marker:none;enable-background:accumulate"
         inkscape:connector-curvature="0" />
      <path
         inkscape:connector-curvature="0"
         id="use1522-2"
         d="m 129.43366,131.59367 -9.5e-4,-5.35752 -5.09486,-1.656 2.5e-4,5.35643 z"
         style="display:inline;overflow:visible;visibility:visible;fill:#d64c27;fill-opacity:1;stroke:#6b4d62;stroke-width:0.264583;stroke-linecap:round;stroke-linejoin:round;stroke-miterlimit:4;stroke-dasharray:none;stroke-dashoffset:0;stroke-opacity:1;marker:none;enable-background:accumulate" />
      <path
         inkscape:connector-curvature="0"
         id="use1524-4"
         d="m 129.43365,131.59366 5.09502,-1.65646 5.5e-4,-5.35724 -5.09419,1.65547 z"
         style="display:inline;overflow:visible;visibility:visible;fill:#d15033;fill-opacity:1;stroke:#6b4d62;stroke-width:0.264583;stroke-linecap:round;stroke-linejoin:round;stroke-miterlimit:4;stroke-dasharray:none;stroke-dashoffset:0;stroke-opacity:1;marker:none;enable-background:accumulate" />
      <path
         inkscape:connector-curvature="0"
         id="use1526-3"
         d="m 129.42994,131.5924 3.14984,4.33377 5.09521,-1.65496 -3.14864,-4.33329 z"
         style="display:inline;overflow:visible;visibility:visible;fill:#c95647;fill-opacity:1;stroke:#6b4d62;stroke-width:0.264583;stroke-linecap:round;stroke-linejoin:round;stroke-miterlimit:4;stroke-dasharray:none;stroke-dashoffset:0;stroke-opacity:1;marker:none;enable-background:accumulate" />
      <path
         inkscape:connector-curvature="0"
         id="use1528-3"
         d="m 129.43009,140.26169 3.14831,-4.33488 -3.14846,-4.33442 -3.14822,4.33359 z"
         style="display:inline;overflow:visible;visibility:visible;fill:#bc6069;fill-opacity:1;stroke:#6b4d62;stroke-width:0.264583;stroke-linecap:round;stroke-linejoin:round;stroke-miterlimit:4;stroke-dasharray:none;stroke-dashoffset:0;stroke-opacity:1;marker:none;enable-background:accumulate" />
      <path
         inkscape:connector-curvature="0"
         id="use1530-0"
         d="m 121.18749,134.27068 5.0956,1.65467 3.14935,-4.33378 -5.09435,-1.65499 z"
         style="display:inline;overflow:visible;visibility:visible;fill:#c95647;fill-opacity:1;stroke:#6b4d62;stroke-width:0.264583;stroke-linecap:round;stroke-linejoin:round;stroke-miterlimit:4;stroke-dasharray:none;stroke-dashoffset:0;stroke-opacity:1;marker:none;enable-background:accumulate" />
      <path
         id="use1532-9"
         d="m 129.43148,140.26104 3.1483,-4.33488 5.09658,-1.6556 -3.14848,4.336 z"
         style="display:inline;overflow:visible;visibility:visible;fill:#d0807e;fill-opacity:1;stroke:#6b4d62;stroke-width:0.264583;stroke-linecap:round;stroke-linejoin:round;stroke-miterlimit:4;stroke-dasharray:none;stroke-dashoffset:0;stroke-opacity:1;marker:none;enable-background:accumulate"
         inkscape:connector-curvature="0" />
      <path
         id="use1534-4"
         d="m 121.185,134.2715 5.0956,1.65466 3.14949,4.33553 -5.09671,-1.65449 z"
         style="display:inline;overflow:visible;visibility:visible;fill:#c24a40;fill-opacity:1;stroke:#6b4d62;stroke-width:0.264583;stroke-linecap:round;stroke-linejoin:round;stroke-miterlimit:4;stroke-dasharray:none;stroke-dashoffset:0;stroke-opacity:1;marker:none;enable-background:accumulate"
         inkscape:connector-curvature="0" />
      <path
         id="use1536-5"
         d="m 124.33413,124.57887 9.5e-4,5.35753 -3.15008,4.33509 -0.001,-5.35853 z"
         style="display:inline;overflow:visible;visibility:visible;fill:#cd492f;fill-opacity:1;stroke:#6b4d62;stroke-width:0.264583;stroke-linecap:round;stroke-linejoin:round;stroke-miterlimit:4;stroke-dasharray:none;stroke-dashoffset:0;stroke-opacity:1;marker:none;enable-background:accumulate"
         inkscape:connector-curvature="0" />
      <path
         id="use1538-5"
         d="m 124.33947,124.57836 5.09502,-1.65647 5.09635,1.65629 -5.09581,1.65727 z"
         style="display:inline;overflow:visible;visibility:visible;fill:#d64c27;fill-opacity:1;stroke:#6b4d62;stroke-width:0.264583;stroke-linecap:round;stroke-linejoin:round;stroke-miterlimit:4;stroke-dasharray:none;stroke-dashoffset:0;stroke-opacity:1;marker:none;enable-background:accumulate"
         inkscape:connector-curvature="0" />
      <path
         id="use1540-6"
         d="m 134.52552,124.57871 3.14985,4.33377 -3.7e-4,5.35874 -3.15085,-4.33428 z"
         style="display:inline;overflow:visible;visibility:visible;fill:#d66247;fill-opacity:1;stroke:#6b4d62;stroke-width:0.264583;stroke-linecap:round;stroke-linejoin:round;stroke-miterlimit:4;stroke-dasharray:none;stroke-dashoffset:0;stroke-opacity:1;marker:none;enable-background:accumulate"
         inkscape:connector-curvature="0" />
      <path
         inkscape:connector-curvature="0"
         id="use1544-3"
         d="m 129.43447,122.92189 3.14831,-4.33488 -3.14846,-4.33442 -3.14822,4.33359 z"
         style="display:inline;overflow:visible;visibility:visible;fill:#db4e22;fill-opacity:1;stroke:#6b4d62;stroke-width:0.264583;stroke-linecap:round;stroke-linejoin:round;stroke-miterlimit:4;stroke-dasharray:none;stroke-dashoffset:0;stroke-opacity:1;marker:none;enable-background:accumulate" />
      <path
         inkscape:connector-curvature="0"
         id="use1546-0"
         d="m 112.93849,126.23416 3.14984,4.33377 5.09521,-1.65496 -3.14864,-4.33329 z"
         style="display:inline;overflow:visible;visibility:visible;fill:#d14522;fill-opacity:1;stroke:#6b4d62;stroke-width:0.264583;stroke-linecap:round;stroke-linejoin:round;stroke-miterlimit:4;stroke-dasharray:none;stroke-dashoffset:0;stroke-opacity:1;marker:none;enable-background:accumulate" />
      <path
         inkscape:connector-curvature="0"
         id="use1548-0"
         d="m 137.67534,128.91246 5.0956,1.65467 3.14935,-4.33378 -5.09435,-1.65498 z"
         style="display:inline;overflow:visible;visibility:visible;fill:#e17450;fill-opacity:1;stroke:#6b4d62;stroke-width:0.264583;stroke-linecap:round;stroke-linejoin:round;stroke-miterlimit:4;stroke-dasharray:none;stroke-dashoffset:0;stroke-opacity:1;marker:none;enable-background:accumulate" />
      <path
         inkscape:connector-curvature="0"
         id="use1550-7"
         d="m 119.23782,145.62089 5.09502,-1.65647 5.5e-4,-5.35723 -5.09419,1.65546 z"
         style="display:inline;overflow:visible;visibility:visible;fill:#a4435c;fill-opacity:1;stroke:#6b4d62;stroke-width:0.264583;stroke-linecap:round;stroke-linejoin:round;stroke-miterlimit:4;stroke-dasharray:none;stroke-dashoffset:0;stroke-opacity:1;marker:none;enable-background:accumulate" />
      <path
         inkscape:connector-curvature="0"
         id="use1552-2"
         d="m 129.4284,145.62153 -9.5e-4,-5.35753 -5.09486,-1.656 2.5e-4,5.35643 z"
         style="display:inline;overflow:visible;visibility:visible;fill:#93518d;fill-opacity:1;stroke:#6b4d62;stroke-width:0.264583;stroke-linecap:round;stroke-linejoin:round;stroke-miterlimit:4;stroke-dasharray:none;stroke-dashoffset:0;stroke-opacity:1;marker:none;enable-background:accumulate" />
      <path
         inkscape:connector-curvature="0"
         id="use1554-9"
         d="m 129.4284,145.62152 5.09501,-1.65646 5.5e-4,-5.35724 -5.09418,1.65547 z"
         style="display:inline;overflow:visible;visibility:visible;fill:#bc6069;fill-opacity:1;stroke:#6b4d62;stroke-width:0.264583;stroke-linecap:round;stroke-linejoin:round;stroke-miterlimit:4;stroke-dasharray:none;stroke-dashoffset:0;stroke-opacity:1;marker:none;enable-background:accumulate" />
      <path
         inkscape:connector-curvature="0"
         id="use1556-1"
         d="m 142.77403,135.92956 -9.4e-4,-5.35752 -5.09486,-1.656 2.5e-4,5.35643 z"
         style="display:inline;overflow:visible;visibility:visible;fill:#d7725b;fill-opacity:1;stroke:#6b4d62;stroke-width:0.264583;stroke-linecap:round;stroke-linejoin:round;stroke-miterlimit:4;stroke-dasharray:none;stroke-dashoffset:0;stroke-opacity:1;marker:none;enable-background:accumulate" />
      <path
         inkscape:connector-curvature="0"
         id="use1560-0"
         d="m 137.67686,120.24818 -3.14831,4.33488 3.14846,4.33442 3.14823,-4.33359 z"
         style="display:inline;overflow:visible;visibility:visible;fill:#da532c;fill-opacity:1;stroke:#6b4d62;stroke-width:0.264583;stroke-linecap:round;stroke-linejoin:round;stroke-miterlimit:4;stroke-dasharray:none;stroke-dashoffset:0;stroke-opacity:1;marker:none;enable-background:accumulate" />
      <path
         inkscape:connector-curvature="0"
         id="use1562-4"
         d="m 137.67686,120.2482 -5.0956,-1.65467 -3.14935,4.33377 5.09435,1.65499 z"
         style="display:inline;overflow:visible;visibility:visible;fill:#db4e22;fill-opacity:1;stroke:#6b4d62;stroke-width:0.264583;stroke-linecap:round;stroke-linejoin:round;stroke-miterlimit:4;stroke-dasharray:none;stroke-dashoffset:0;stroke-opacity:1;marker:none;enable-background:accumulate" />
      <path
         inkscape:connector-curvature="0"
         id="use1564-2"
         d="m 121.18321,120.24478 -3.14831,4.33488 3.14846,4.33442 3.14823,-4.33359 z"
         style="display:inline;overflow:visible;visibility:visible;fill:#d6471e;fill-opacity:1;stroke:#6b4d62;stroke-width:0.264583;stroke-linecap:round;stroke-linejoin:round;stroke-miterlimit:4;stroke-dasharray:none;stroke-dashoffset:0;stroke-opacity:1;marker:none;enable-background:accumulate" />
      <path
         inkscape:connector-curvature="0"
         id="use1566-8"
         d="m 129.428,122.92602 -3.14983,-4.33377 -5.09521,1.65495 3.14863,4.33329 z"
         style="display:inline;overflow:visible;visibility:visible;fill:#d84a1f;fill-opacity:1;stroke:#6b4d62;stroke-width:0.264583;stroke-linecap:round;stroke-linejoin:round;stroke-miterlimit:4;stroke-dasharray:none;stroke-dashoffset:0;stroke-opacity:1;marker:none;enable-background:accumulate" />
      <path
         inkscape:connector-curvature="0"
         id="use1568-1"
         d="m 116.08559,135.92418 3.14983,4.33377 5.09521,-1.65495 -3.14864,-4.3333 z"
         style="display:inline;overflow:visible;visibility:visible;fill:#be433c;fill-opacity:1;stroke:#6b4d62;stroke-width:0.264583;stroke-linecap:round;stroke-linejoin:round;stroke-miterlimit:4;stroke-dasharray:none;stroke-dashoffset:0;stroke-opacity:1;marker:none;enable-background:accumulate" />
      <path
         inkscape:connector-curvature="0"
         id="use1570-9"
         d="m 121.18336,128.91146 -5.09501,1.65646 -5.5e-4,5.35724 5.09419,-1.65547 z"
         style="display:inline;overflow:visible;visibility:visible;fill:#be433c;fill-opacity:1;stroke:#6b4d62;stroke-width:0.264583;stroke-linecap:round;stroke-linejoin:round;stroke-miterlimit:4;stroke-dasharray:none;stroke-dashoffset:0;stroke-opacity:1;marker:none;enable-background:accumulate" />
      <path
         inkscape:connector-curvature="0"
         id="use1582-3"
         d="m 107.84276,138.60397 3.14983,-4.33377 5.09521,1.65496 -3.14864,4.33329 z"
         style="display:inline;overflow:visible;visibility:visible;fill:#bb3f39;fill-opacity:1;stroke:#6b4d62;stroke-width:0.264583;stroke-linecap:round;stroke-linejoin:round;stroke-miterlimit:4;stroke-dasharray:none;stroke-dashoffset:0;stroke-opacity:1;marker:none;enable-background:accumulate" />
      <path
         inkscape:connector-curvature="0"
         id="use1584-6"
         d="m 107.84277,138.60396 -3.14832,-4.33488 3.14847,-4.33442 3.14822,4.33359 z"
         style="display:inline;overflow:visible;visibility:visible;fill:none;fill-opacity:1;stroke:#6b4d62;stroke-width:0.264583;stroke-linecap:round;stroke-linejoin:round;stroke-miterlimit:4;stroke-dasharray:none;stroke-dashoffset:0;stroke-opacity:1;marker:none;enable-background:accumulate" />
      <path
         inkscape:connector-curvature="0"
         id="use1590-4"
         d="m 112.94054,145.61667 -5.09501,-1.65646 -5.5e-4,-5.35724 5.09418,1.65547 z"
         style="display:inline;overflow:visible;visibility:visible;fill:#a2364e;fill-opacity:1;stroke:#6b4d62;stroke-width:0.264583;stroke-linecap:round;stroke-linejoin:round;stroke-miterlimit:4;stroke-dasharray:none;stroke-dashoffset:0;stroke-opacity:1;marker:none;enable-background:accumulate" />
      <path
         inkscape:connector-curvature="0"
         id="use1592-8"
         d="m 129.42816,154.2869 5.09502,1.65646 5.5e-4,5.35724 -5.09419,-1.65547 z"
         style="display:inline;overflow:visible;visibility:visible;fill:#8d3265;fill-opacity:1;stroke:#6b4d62;stroke-width:0.264583;stroke-linecap:round;stroke-linejoin:round;stroke-miterlimit:4;stroke-dasharray:none;stroke-dashoffset:0;stroke-opacity:1;marker:none;enable-background:accumulate" />
      <path
         inkscape:connector-curvature="0"
         id="use1594-1"
         d="m 129.42818,154.2869 3.14983,-4.33377 5.09521,1.65496 -3.14864,4.33329 z"
         style="display:inline;overflow:visible;visibility:visible;fill:#904179;fill-opacity:1;stroke:#6b4d62;stroke-width:0.264583;stroke-linecap:round;stroke-linejoin:round;stroke-miterlimit:4;stroke-dasharray:none;stroke-dashoffset:0;stroke-opacity:1;marker:none;enable-background:accumulate" />
      <path
         inkscape:connector-curvature="0"
         id="use1596-8"
         d="m 129.42825,154.29081 -3.14832,-4.33488 3.14847,-4.33442 3.14822,4.33359 z"
         style="display:inline;overflow:visible;visibility:visible;fill:#93518d;fill-opacity:1;stroke:#6b4d62;stroke-width:0.264583;stroke-linecap:round;stroke-linejoin:round;stroke-miterlimit:4;stroke-dasharray:none;stroke-dashoffset:0;stroke-opacity:1;marker:none;enable-background:accumulate" />
      <path
         inkscape:connector-curvature="0"
         id="use1598-3"
         d="m 121.1833,151.61171 5.0956,-1.65467 3.14935,4.33378 -5.09434,1.65498 z"
         style="display:inline;overflow:visible;visibility:visible;fill:#842f6e;fill-opacity:1;stroke:#6b4d62;stroke-width:0.264583;stroke-linecap:round;stroke-linejoin:round;stroke-miterlimit:4;stroke-dasharray:none;stroke-dashoffset:0;stroke-opacity:1;marker:none;enable-background:accumulate" />
      <path
         inkscape:connector-curvature="0"
         id="use1600-9"
         d="m 124.33399,161.30222 9.4e-4,-5.35752 5.09487,-1.656 -2.6e-4,5.35642 z"
         style="display:inline;overflow:visible;visibility:visible;fill:#842f6e;fill-opacity:1;stroke:#6b4d62;stroke-width:0.264583;stroke-linecap:round;stroke-linejoin:round;stroke-miterlimit:4;stroke-dasharray:none;stroke-dashoffset:0;stroke-opacity:1;marker:none;enable-background:accumulate" />
      <path
         inkscape:connector-curvature="0"
         id="use1606-2"
         d="m 151.01898,138.60866 -3.14832,-4.33488 3.14847,-4.33442 3.14822,4.33359 z"
         style="display:inline;overflow:visible;visibility:visible;fill:#c8a6c5;fill-opacity:1;stroke:#6b4d62;stroke-width:0.264583;stroke-linecap:round;stroke-linejoin:round;stroke-miterlimit:4;stroke-dasharray:none;stroke-dashoffset:0;stroke-opacity:1;marker:none;enable-background:accumulate" />
      <path
         id="use1624-0"
         d="m 129.43439,114.25131 5.09561,1.65465 3.14949,4.33553 -5.09672,-1.65448 z"
         style="display:inline;overflow:visible;visibility:visible;fill:none;fill-opacity:1;stroke:#6b4d62;stroke-width:0.264583;stroke-linecap:round;stroke-linejoin:round;stroke-miterlimit:4;stroke-dasharray:none;stroke-dashoffset:0;stroke-opacity:1;marker:none;enable-background:accumulate"
         inkscape:connector-curvature="0" />
      <path
         id="use1626-8"
         d="m 145.92262,126.22235 -5.0956,-1.65466 -3.14949,-4.33553 5.09672,1.65449 z"
         style="display:inline;overflow:visible;visibility:visible;fill:#e15e33;fill-opacity:1;stroke:#6b4d62;stroke-width:0.264583;stroke-linecap:round;stroke-linejoin:round;stroke-miterlimit:4;stroke-dasharray:none;stroke-dashoffset:0;stroke-opacity:1;marker:none;enable-background:accumulate"
         inkscape:connector-curvature="0" />
      <path
         id="use1628-4"
         d="m 147.87087,120.2413 -5.09501,1.65648 -5.09635,-1.6563 5.09581,-1.65727 z"
         style="display:inline;overflow:visible;visibility:visible;fill:#b54043;fill-opacity:1;stroke:#6b4d62;stroke-width:0.264583;stroke-linecap:round;stroke-linejoin:round;stroke-miterlimit:4;stroke-dasharray:none;stroke-dashoffset:0;stroke-opacity:1;marker:none;enable-background:accumulate"
         inkscape:connector-curvature="0" />
      <path
         id="use1630-7"
         d="m 151.00887,129.92351 -3.1483,4.33489 -5.09658,1.65559 3.14848,-4.336 z"
         style="display:inline;overflow:visible;visibility:visible;fill:#df9786;fill-opacity:1;stroke:#6b4d62;stroke-width:0.264583;stroke-linecap:round;stroke-linejoin:round;stroke-miterlimit:4;stroke-dasharray:none;stroke-dashoffset:0;stroke-opacity:1;marker:none;enable-background:accumulate"
         inkscape:connector-curvature="0" />
      <path
         id="use1632-4"
         d="m 145.9226,126.22237 9.5e-4,5.35753 -3.15009,4.33509 -0.001,-5.35853 z"
         style="display:inline;overflow:visible;visibility:visible;fill:#e98969;fill-opacity:1;stroke:#6b4d62;stroke-width:0.264583;stroke-linecap:round;stroke-linejoin:round;stroke-miterlimit:4;stroke-dasharray:none;stroke-dashoffset:0;stroke-opacity:1;marker:none;enable-background:accumulate"
         inkscape:connector-curvature="0" />
      <path
         id="use1638-1"
         d="m 137.67349,151.61171 -5.0956,-1.65466 -3.14949,-4.33553 5.09672,1.65448 z"
         style="display:inline;overflow:visible;visibility:visible;fill:#a25680;fill-opacity:1;stroke:#6b4d62;stroke-width:0.264583;stroke-linecap:round;stroke-linejoin:round;stroke-miterlimit:4;stroke-dasharray:none;stroke-dashoffset:0;stroke-opacity:1;marker:none;enable-background:accumulate"
         inkscape:connector-curvature="0" />
      <path
         id="use1640-5"
         d="m 139.62176,145.63068 -5.09501,1.65648 -5.09635,-1.6563 5.09581,-1.65726 z"
         style="display:inline;overflow:visible;visibility:visible;fill:#a771a2;fill-opacity:1;stroke:#6b4d62;stroke-width:0.264583;stroke-linecap:round;stroke-linejoin:round;stroke-miterlimit:4;stroke-dasharray:none;stroke-dashoffset:0;stroke-opacity:1;marker:none;enable-background:accumulate"
         inkscape:connector-curvature="0" />
      <path
         id="use1642-7"
         d="m 119.2461,145.63741 5.09502,-1.65648 5.09635,1.6563 -5.09581,1.65726 z"
         style="display:inline;overflow:visible;visibility:visible;fill:#873e81;fill-opacity:1;stroke:#6b4d62;stroke-width:0.264583;stroke-linecap:round;stroke-linejoin:round;stroke-miterlimit:4;stroke-dasharray:none;stroke-dashoffset:0;stroke-opacity:1;marker:none;enable-background:accumulate"
         inkscape:connector-curvature="0" />
      <path
         id="use1644-7"
         d="m 121.1855,151.62134 3.14831,-4.33489 5.09658,-1.65559 -3.14848,4.336 z"
         style="display:inline;overflow:visible;visibility:visible;fill:#853575;fill-opacity:1;stroke:#6b4d62;stroke-width:0.264583;stroke-linecap:round;stroke-linejoin:round;stroke-miterlimit:4;stroke-dasharray:none;stroke-dashoffset:0;stroke-opacity:1;marker:none;enable-background:accumulate"
         inkscape:connector-curvature="0" />
      <path
         id="use1646-3"
         d="m 112.93646,145.61678 -9.5e-4,-5.35752 3.15009,-4.3351 0.001,5.35853 z"
         style="display:inline;overflow:visible;visibility:visible;fill:#a53a51;fill-opacity:1;stroke:#6b4d62;stroke-width:0.264583;stroke-linecap:round;stroke-linejoin:round;stroke-miterlimit:4;stroke-dasharray:none;stroke-dashoffset:0;stroke-opacity:1;marker:none;enable-background:accumulate"
         inkscape:connector-curvature="0" />
      <path
         id="use1648-8"
         d="m 119.22681,145.62145 -3.14984,-4.33376 3.7e-4,-5.35874 3.15085,4.33428 z"
         style="display:inline;overflow:visible;visibility:visible;fill:#a94156;fill-opacity:1;stroke:#6b4d62;stroke-width:0.264583;stroke-linecap:round;stroke-linejoin:round;stroke-miterlimit:4;stroke-dasharray:none;stroke-dashoffset:0;stroke-opacity:1;marker:none;enable-background:accumulate"
         inkscape:connector-curvature="0" />
      <path
         id="use1650-7"
         d="m 112.92397,126.24514 3.14985,4.33376 -3.7e-4,5.35874 -3.15085,-4.33428 z"
         style="display:inline;overflow:visible;visibility:visible;fill:#ca442c;fill-opacity:1;stroke:#6b4d62;stroke-width:0.264583;stroke-linecap:round;stroke-linejoin:round;stroke-miterlimit:4;stroke-dasharray:none;stroke-dashoffset:0;stroke-opacity:1;marker:none;enable-background:accumulate"
         inkscape:connector-curvature="0" />
      <path
         id="use1652-5"
         d="m 107.83223,129.93875 5.0956,1.65466 3.14949,4.33553 -5.09672,-1.65448 z"
         style="display:inline;overflow:visible;visibility:visible;fill:#c8412a;fill-opacity:1;stroke:#6b4d62;stroke-width:0.264583;stroke-linecap:round;stroke-linejoin:round;stroke-miterlimit:4;stroke-dasharray:none;stroke-dashoffset:0;stroke-opacity:1;marker:none;enable-background:accumulate"
         inkscape:connector-curvature="0" />
      <path
         id="use1654-5"
         d="m 110.99185,120.24498 5.09502,-1.65647 5.09635,1.65629 -5.09581,1.65727 z"
         style="display:inline;overflow:visible;visibility:visible;fill:#d6471e;fill-opacity:1;stroke:#6b4d62;stroke-width:0.264583;stroke-linecap:round;stroke-linejoin:round;stroke-miterlimit:4;stroke-dasharray:none;stroke-dashoffset:0;stroke-opacity:1;marker:none;enable-background:accumulate"
         inkscape:connector-curvature="0" />
      <path
         id="use1656-9"
         d="m 112.93125,126.2289 3.1483,-4.33489 5.09658,-1.65559 -3.14848,4.336 z"
         style="display:inline;overflow:visible;visibility:visible;fill:#d6471e;fill-opacity:1;stroke:#6b4d62;stroke-width:0.264583;stroke-linecap:round;stroke-linejoin:round;stroke-miterlimit:4;stroke-dasharray:none;stroke-dashoffset:0;stroke-opacity:1;marker:none;enable-background:accumulate"
         inkscape:connector-curvature="0" />
      <path
         id="use1658-5"
         d="m 129.41153,114.24691 -3.1483,4.33489 -5.09658,1.65559 3.14848,-4.336 z"
         style="display:inline;overflow:visible;visibility:visible;fill:none;fill-opacity:1;stroke:#6b4d62;stroke-width:0.264583;stroke-linecap:round;stroke-linejoin:round;stroke-miterlimit:4;stroke-dasharray:none;stroke-dashoffset:0;stroke-opacity:1;marker:none;enable-background:accumulate"
         inkscape:connector-curvature="0" />
      <path
         inkscape:connector-curvature="0"
         id="use1662-9"
         d="m 107.82682,124.58987 9.4e-4,5.35752 5.09486,1.656 -2.5e-4,-5.35643 z"
         style="display:inline;overflow:visible;visibility:visible;fill:#d5451d;fill-opacity:1;stroke:#6b4d62;stroke-width:0.264583;stroke-linecap:round;stroke-linejoin:round;stroke-miterlimit:4;stroke-dasharray:none;stroke-dashoffset:0;stroke-opacity:1;marker:none;enable-background:accumulate" />
      <path
         inkscape:connector-curvature="0"
         id="use1664-7"
         d="m 116.07296,121.91285 -5.0956,-1.65467 -3.14935,4.33377 5.09435,1.65499 z"
         style="display:inline;overflow:visible;visibility:visible;fill:#c3401b;fill-opacity:1;stroke:#6b4d62;stroke-width:0.264583;stroke-linecap:round;stroke-linejoin:round;stroke-miterlimit:4;stroke-dasharray:none;stroke-dashoffset:0;stroke-opacity:1;marker:none;enable-background:accumulate" />
      <path
         inkscape:connector-curvature="0"
         id="use1670-2"
         d="m 151.01644,124.58036 -3.14983,-4.33378 -5.09521,1.65496 3.14863,4.33329 z"
         style="display:inline;overflow:visible;visibility:visible;fill:#b6464b;fill-opacity:1;stroke:#6b4d62;stroke-width:0.264583;stroke-linecap:round;stroke-linejoin:round;stroke-miterlimit:4;stroke-dasharray:none;stroke-dashoffset:0;stroke-opacity:1;marker:none;enable-background:accumulate" />
      <path
         inkscape:connector-curvature="0"
         id="use1672-8"
         d="m 145.91866,131.59305 5.09501,-1.65646 5.5e-4,-5.35724 -5.09418,1.65547 z"
         style="display:inline;overflow:visible;visibility:visible;fill:#bb5f6b;fill-opacity:1;stroke:#6b4d62;stroke-width:0.264583;stroke-linecap:round;stroke-linejoin:round;stroke-miterlimit:4;stroke-dasharray:none;stroke-dashoffset:0;stroke-opacity:1;marker:none;enable-background:accumulate" />
      <path
         inkscape:connector-curvature="0"
         id="use1674-4"
         d="m 142.77152,149.96836 3.14831,-4.33488 -3.14846,-4.33442 -3.14822,4.33359 z"
         style="display:inline;overflow:visible;visibility:visible;fill:#c8a6c5;fill-opacity:1;stroke:#6b4d62;stroke-width:0.264583;stroke-linecap:round;stroke-linejoin:round;stroke-miterlimit:4;stroke-dasharray:none;stroke-dashoffset:0;stroke-opacity:1;marker:none;enable-background:accumulate" />
      <path
         inkscape:connector-curvature="0"
         id="use1676-0"
         d="m 134.52673,147.28712 3.14984,4.33378 5.0952,-1.65496 -3.14863,-4.33329 z"
         style="display:inline;overflow:visible;visibility:visible;fill:#c07a8d;fill-opacity:1;stroke:#6b4d62;stroke-width:0.264583;stroke-linecap:round;stroke-linejoin:round;stroke-miterlimit:4;stroke-dasharray:none;stroke-dashoffset:0;stroke-opacity:1;marker:none;enable-background:accumulate" />
      <path
         inkscape:connector-curvature="0"
         id="use1678-6"
         d="m 116.07475,149.95748 5.09559,1.65467 3.14935,-4.33377 -5.09434,-1.65499 z"
         style="display:inline;overflow:visible;visibility:visible;fill:#80327a;fill-opacity:1;stroke:#6b4d62;stroke-width:0.264583;stroke-linecap:round;stroke-linejoin:round;stroke-miterlimit:4;stroke-dasharray:none;stroke-dashoffset:0;stroke-opacity:1;marker:none;enable-background:accumulate" />
      <path
         inkscape:connector-curvature="0"
         id="use1680-0"
         d="m 116.07697,141.28768 -3.14831,4.33488 3.14846,4.33442 3.14823,-4.33358 z"
         style="display:inline;overflow:visible;visibility:visible;fill:#80327a;fill-opacity:1;stroke:#6b4d62;stroke-width:0.264583;stroke-linecap:round;stroke-linejoin:round;stroke-miterlimit:4;stroke-dasharray:none;stroke-dashoffset:0;stroke-opacity:1;marker:none;enable-background:accumulate" />
      <path
         id="use1682-0"
         d="m 121.17035,151.61215 3.14984,4.33377 -3.7e-4,5.35874 -3.15084,-4.33428 z"
         style="display:inline;overflow:visible;visibility:visible;fill:#7e296e;fill-opacity:1;stroke:#6b4d62;stroke-width:0.264583;stroke-linecap:round;stroke-linejoin:round;stroke-miterlimit:4;stroke-dasharray:none;stroke-dashoffset:0;stroke-opacity:1;marker:none;enable-background:accumulate"
         inkscape:connector-curvature="0" />
      <path
         inkscape:connector-curvature="0"
         id="use1684-9"
         d="m 121.16898,156.97038 -9.5e-4,-5.35753 -5.09486,-1.656 2.5e-4,5.35643 z"
         style="display:inline;overflow:visible;visibility:visible;fill:#7e296e;fill-opacity:1;stroke:#6b4d62;stroke-width:0.264583;stroke-linecap:round;stroke-linejoin:round;stroke-miterlimit:4;stroke-dasharray:none;stroke-dashoffset:0;stroke-opacity:1;marker:none;enable-background:accumulate" />
      <path
         inkscape:connector-curvature="0"
         id="use1686-9"
         d="m 121.16912,165.63967 3.14831,-4.33488 -3.14846,-4.33442 -3.14822,4.33359 z"
         style="display:inline;overflow:visible;visibility:visible;fill:#7e266b;fill-opacity:1;stroke:#6b4d62;stroke-width:0.264583;stroke-linecap:round;stroke-linejoin:round;stroke-miterlimit:4;stroke-dasharray:none;stroke-dashoffset:0;stroke-opacity:1;marker:none;enable-background:accumulate" />
      <path
         inkscape:connector-curvature="0"
         id="use1688-3"
         d="m 112.92282,159.64737 5.0956,1.65467 3.14935,-4.33377 -5.09434,-1.65499 z"
         style="display:inline;overflow:visible;visibility:visible;fill:#7b256e;fill-opacity:1;stroke:#6b4d62;stroke-width:0.264583;stroke-linecap:round;stroke-linejoin:round;stroke-miterlimit:4;stroke-dasharray:none;stroke-dashoffset:0;stroke-opacity:1;marker:none;enable-background:accumulate" />
      <path
         id="use1690-3"
         d="m 124.33399,161.30222 5.09502,-1.65647 5.09635,1.65629 -5.09581,1.65727 z"
         style="display:inline;overflow:visible;visibility:visible;fill:#832b69;fill-opacity:1;stroke:#6b4d62;stroke-width:0.264583;stroke-linecap:round;stroke-linejoin:round;stroke-miterlimit:4;stroke-dasharray:none;stroke-dashoffset:0;stroke-opacity:1;marker:none;enable-background:accumulate"
         inkscape:connector-curvature="0" />
      <path
         inkscape:connector-curvature="0"
         id="use1692-5"
         d="m 129.42955,162.95932 -5.0956,-1.65467 -3.14935,4.33378 5.09435,1.65499 z"
         style="display:inline;overflow:visible;visibility:visible;fill:none;fill-opacity:1;stroke:#6b4d62;stroke-width:0.264583;stroke-linecap:round;stroke-linejoin:round;stroke-miterlimit:4;stroke-dasharray:none;stroke-dashoffset:0;stroke-opacity:1;marker:none;enable-background:accumulate" />
      <path
         inkscape:connector-curvature="0"
         id="use1694-0"
         d="m 137.67459,165.63812 -3.14984,-4.33377 -5.0952,1.65495 3.14863,4.33329 z"
         style="display:inline;overflow:visible;visibility:visible;fill:none;fill-opacity:1;stroke:#6b4d62;stroke-width:0.264583;stroke-linecap:round;stroke-linejoin:round;stroke-miterlimit:4;stroke-dasharray:none;stroke-dashoffset:0;stroke-opacity:1;marker:none;enable-background:accumulate" />
      <path
         id="use1698-7"
         d="m 134.52745,161.31352 -9.5e-4,-5.35752 3.15009,-4.3351 0.001,5.35853 z"
         style="display:inline;overflow:visible;visibility:visible;fill:#8d3265;fill-opacity:1;stroke:#6b4d62;stroke-width:0.264583;stroke-linecap:round;stroke-linejoin:round;stroke-miterlimit:4;stroke-dasharray:none;stroke-dashoffset:0;stroke-opacity:1;marker:none;enable-background:accumulate"
         inkscape:connector-curvature="0" />
      <path
         inkscape:connector-curvature="0"
         id="use1700-1"
         d="m 137.67804,156.97942 -3.14831,4.33488 3.14846,4.33442 3.14823,-4.33359 z"
         style="display:inline;overflow:visible;visibility:visible;fill:#8c2e61;fill-opacity:1;stroke:#6b4d62;stroke-width:0.264583;stroke-linecap:round;stroke-linejoin:round;stroke-miterlimit:4;stroke-dasharray:none;stroke-dashoffset:0;stroke-opacity:1;marker:none;enable-background:accumulate" />
      <path
         inkscape:connector-curvature="0"
         id="use1702-9"
         d="m 142.7736,149.96573 -5.09502,1.65646 -5.5e-4,5.35724 5.09419,-1.65547 z"
         style="display:inline;overflow:visible;visibility:visible;fill:#9f466c;fill-opacity:1;stroke:#6b4d62;stroke-width:0.264583;stroke-linecap:round;stroke-linejoin:round;stroke-miterlimit:4;stroke-dasharray:none;stroke-dashoffset:0;stroke-opacity:1;marker:none;enable-background:accumulate" />
      <path
         inkscape:connector-curvature="0"
         id="use1704-8"
         d="m 145.92282,159.66067 -3.14983,-4.33377 -5.09521,1.65496 3.14863,4.33329 z"
         style="display:inline;overflow:visible;visibility:visible;fill:#9d3d60;fill-opacity:1;stroke:#6b4d62;stroke-width:0.264583;stroke-linecap:round;stroke-linejoin:round;stroke-miterlimit:4;stroke-dasharray:none;stroke-dashoffset:0;stroke-opacity:1;marker:none;enable-background:accumulate" />
      <path
         id="use1706-3"
         d="m 145.90278,145.63376 5.09502,-1.65647 5.09635,1.65629 -5.09581,1.65727 z"
         style="display:inline;overflow:visible;visibility:visible;fill:#f1b5a1;fill-opacity:1;stroke:#6b4d62;stroke-width:0.264583;stroke-linecap:round;stroke-linejoin:round;stroke-miterlimit:4;stroke-dasharray:none;stroke-dashoffset:0;stroke-opacity:1;marker:none;enable-background:accumulate"
         inkscape:connector-curvature="0" />
      <path
         inkscape:connector-curvature="0"
         id="use1708-2"
         d="m 150.99834,147.29084 -5.0956,-1.65467 -3.14935,4.33377 5.09434,1.65499 z"
         style="display:inline;overflow:visible;visibility:visible;fill:#c07a8d;fill-opacity:1;stroke:#6b4d62;stroke-width:0.264583;stroke-linecap:round;stroke-linejoin:round;stroke-miterlimit:4;stroke-dasharray:none;stroke-dashoffset:0;stroke-opacity:1;marker:none;enable-background:accumulate" />
      <path
         inkscape:connector-curvature="0"
         id="use1710-3"
         d="m 150.99612,155.96064 3.14832,-4.33488 -3.14847,-4.33442 -3.14822,4.33359 z"
         style="display:inline;overflow:visible;visibility:visible;fill:#bb5f6b;fill-opacity:1;stroke:#6b4d62;stroke-width:0.264583;stroke-linecap:round;stroke-linejoin:round;stroke-miterlimit:4;stroke-dasharray:none;stroke-dashoffset:0;stroke-opacity:1;marker:none;enable-background:accumulate" />
      <path
         inkscape:connector-curvature="0"
         id="use1714-8"
         d="m 159.24682,141.28524 -3.14831,4.33488 3.14846,4.33442 3.14823,-4.33359 z"
         style="display:inline;overflow:visible;visibility:visible;fill:#d0807e;fill-opacity:1;stroke:#6b4d62;stroke-width:0.264583;stroke-linecap:round;stroke-linejoin:round;stroke-miterlimit:4;stroke-dasharray:none;stroke-dashoffset:0;stroke-opacity:1;marker:none;enable-background:accumulate" />
      <path
         id="use1720-6"
         d="m 159.25691,135.92828 -5.0956,-1.65466 -3.14949,-4.33553 5.09672,1.65448 z"
         style="display:inline;overflow:visible;visibility:visible;fill:#c07a8d;fill-opacity:1;stroke:#6b4d62;stroke-width:0.264583;stroke-linecap:round;stroke-linejoin:round;stroke-miterlimit:4;stroke-dasharray:none;stroke-dashoffset:0;stroke-opacity:1;marker:none;enable-background:accumulate"
         inkscape:connector-curvature="0" />
      <path
         inkscape:connector-curvature="0"
         id="use1722-3"
         d="m 156.10854,131.59258 3.14983,4.33378 5.09521,-1.65496 -3.14863,-4.33329 z"
         style="display:inline;overflow:visible;visibility:visible;fill:#a771a2;fill-opacity:1;stroke:#6b4d62;stroke-width:0.264583;stroke-linecap:round;stroke-linejoin:round;stroke-miterlimit:4;stroke-dasharray:none;stroke-dashoffset:0;stroke-opacity:1;marker:none;enable-background:accumulate" />
      <path
         inkscape:connector-curvature="0"
         id="use1724-2"
         d="m 151.01274,124.57907 9.4e-4,5.35752 5.09487,1.656 -2.5e-4,-5.35642 z"
         style="display:inline;overflow:visible;visibility:visible;fill:#a25680;fill-opacity:1;stroke:#6b4d62;stroke-width:0.264583;stroke-linecap:round;stroke-linejoin:round;stroke-miterlimit:4;stroke-dasharray:none;stroke-dashoffset:0;stroke-opacity:1;marker:none;enable-background:accumulate" />
      <path
         inkscape:connector-curvature="0"
         id="use1726-6"
         d="m 161.20632,124.57988 -5.09502,1.65646 -5.4e-4,5.35724 5.09418,-1.65546 z"
         style="display:inline;overflow:visible;visibility:visible;fill:#9f466c;fill-opacity:1;stroke:#6b4d62;stroke-width:0.264583;stroke-linecap:round;stroke-linejoin:round;stroke-miterlimit:4;stroke-dasharray:none;stroke-dashoffset:0;stroke-opacity:1;marker:none;enable-background:accumulate" />
      <path
         inkscape:connector-curvature="0"
         id="use1730-3"
         d="m 151.0307,115.92258 -3.14831,4.33488 3.14846,4.33442 3.14823,-4.33359 z"
         style="display:inline;overflow:visible;visibility:visible;fill:#9c3759;fill-opacity:1;stroke:#6b4d62;stroke-width:0.264583;stroke-linecap:round;stroke-linejoin:round;stroke-miterlimit:4;stroke-dasharray:none;stroke-dashoffset:0;stroke-opacity:1;marker:none;enable-background:accumulate" />
      <path
         inkscape:connector-curvature="0"
         id="use1732-4"
         d="m 159.2755,118.60381 -3.14984,-4.33377 -5.0952,1.65495 3.14863,4.33329 z"
         style="display:inline;overflow:visible;visibility:visible;fill:none;fill-opacity:1;stroke:#6b4d62;stroke-width:0.264583;stroke-linecap:round;stroke-linejoin:round;stroke-miterlimit:4;stroke-dasharray:none;stroke-dashoffset:0;stroke-opacity:1;marker:none;enable-background:accumulate" />
      <path
         inkscape:connector-curvature="0"
         id="use1768-0"
         d="m 107.80272,124.57646 3.14832,-4.33488 -3.14847,-4.33442 -3.14822,4.33359 z"
         style="display:inline;overflow:visible;visibility:visible;fill:none;fill-opacity:1;stroke:#6b4d62;stroke-width:0.264583;stroke-linecap:round;stroke-linejoin:round;stroke-miterlimit:4;stroke-dasharray:none;stroke-dashoffset:0;stroke-opacity:1;marker:none;enable-background:accumulate" />
      <path
         inkscape:connector-curvature="0"
         id="use1776-4"
         d="m 159.24083,149.97128 -3.14983,-4.33378 -5.09521,1.65496 3.14864,4.33329 z"
         style="display:inline;overflow:visible;visibility:visible;fill:#e98969;fill-opacity:1;stroke:#6b4d62;stroke-width:0.264583;stroke-linecap:round;stroke-linejoin:round;stroke-miterlimit:4;stroke-dasharray:none;stroke-dashoffset:0;stroke-opacity:1;marker:none;enable-background:accumulate" />
      <path
         inkscape:connector-curvature="0"
         id="use1796-4"
         d="m 116.08629,149.95056 -3.14983,-4.33377 -5.09521,1.65495 3.14864,4.3333 z"
         style="display:inline;overflow:visible;visibility:visible;fill:#7c2b75;fill-opacity:1;stroke:#6b4d62;stroke-width:0.264583;stroke-linecap:round;stroke-linejoin:round;stroke-miterlimit:4;stroke-dasharray:none;stroke-dashoffset:0;stroke-opacity:1;marker:none;enable-background:accumulate" />
      <path
         inkscape:connector-curvature="0"
         id="use1798-1"
         d="m 107.83903,155.94155 3.14831,-4.33488 -3.14846,-4.33442 -3.14822,4.33359 z"
         style="display:inline;overflow:visible;visibility:visible;fill:none;fill-opacity:1;stroke:#6b4d62;stroke-width:0.264583;stroke-linecap:round;stroke-linejoin:round;stroke-miterlimit:4;stroke-dasharray:none;stroke-dashoffset:0;stroke-opacity:1;marker:none;enable-background:accumulate" />
      <path
         id="use1802-5"
         d="m 150.9888,155.96141 -3.1483,-4.33489 -5.09658,-1.65559 3.14848,4.336 z"
         style="display:inline;overflow:visible;visibility:visible;fill:#b84f57;fill-opacity:1;stroke:#6b4d62;stroke-width:0.264583;stroke-linecap:round;stroke-linejoin:round;stroke-miterlimit:4;stroke-dasharray:none;stroke-dashoffset:0;stroke-opacity:1;marker:none;enable-background:accumulate"
         inkscape:connector-curvature="0" />
      <path
         id="use1804-7"
         d="m 145.90252,159.66256 9.6e-4,-5.35753 -3.15009,-4.33509 -0.001,5.35853 z"
         style="display:inline;overflow:visible;visibility:visible;fill:#bb5f6b;fill-opacity:1;stroke:#6b4d62;stroke-width:0.264583;stroke-linecap:round;stroke-linejoin:round;stroke-miterlimit:4;stroke-dasharray:none;stroke-dashoffset:0;stroke-opacity:1;marker:none;enable-background:accumulate"
         inkscape:connector-curvature="0" />
      <path
         id="use1806-8"
         d="m 112.91982,159.64064 3.14984,-4.33376 -3.7e-4,-5.35874 -3.15084,4.33428 z"
         style="display:inline;overflow:visible;visibility:visible;fill:#7a256e;fill-opacity:1;stroke:#6b4d62;stroke-width:0.264583;stroke-linecap:round;stroke-linejoin:round;stroke-miterlimit:4;stroke-dasharray:none;stroke-dashoffset:0;stroke-opacity:1;marker:none;enable-background:accumulate"
         inkscape:connector-curvature="0" />
      <path
         id="use1808-7"
         d="m 107.82807,155.94704 5.0956,-1.65466 3.14949,-4.33553 -5.09671,1.65449 z"
         style="display:inline;overflow:visible;visibility:visible;fill:#7b2770;fill-opacity:1;stroke:#6b4d62;stroke-width:0.264583;stroke-linecap:round;stroke-linejoin:round;stroke-miterlimit:4;stroke-dasharray:none;stroke-dashoffset:0;stroke-opacity:1;marker:none;enable-background:accumulate"
         inkscape:connector-curvature="0" />
      <path
         id="use1818-2"
         d="m 159.27398,118.61101 -5.0956,1.65466 -3.14949,4.33553 5.09671,-1.65449 z"
         style="display:inline;overflow:visible;visibility:visible;fill:#9e3d60;fill-opacity:1;stroke:#6b4d62;stroke-width:0.264583;stroke-linecap:round;stroke-linejoin:round;stroke-miterlimit:4;stroke-dasharray:none;stroke-dashoffset:0;stroke-opacity:1;marker:none;enable-background:accumulate"
         inkscape:connector-curvature="0" />
      <path
         id="use1820-9"
         d="m 161.22224,124.59206 -5.09502,-1.65648 -5.09635,1.6563 5.09581,1.65726 z"
         style="display:inline;overflow:visible;visibility:visible;fill:#b84f57;fill-opacity:1;stroke:#6b4d62;stroke-width:0.264583;stroke-linecap:round;stroke-linejoin:round;stroke-miterlimit:4;stroke-dasharray:none;stroke-dashoffset:0;stroke-opacity:1;marker:none;enable-background:accumulate"
         inkscape:connector-curvature="0" />
      <path
         inkscape:connector-curvature="0"
         id="use1834-5"
         d="m 107.8267,161.30527 5.09502,-1.65646 5.5e-4,-5.35724 -5.09419,1.65547 z"
         style="display:inline;overflow:visible;visibility:visible;fill:#7b256e;fill-opacity:1;stroke:#6b4d62;stroke-width:0.264583;stroke-linecap:round;stroke-linejoin:round;stroke-miterlimit:4;stroke-dasharray:none;stroke-dashoffset:0;stroke-opacity:1;marker:none;enable-background:accumulate" />
      <path
         inkscape:connector-curvature="0"
         id="use1836-2"
         d="m 107.82299,161.30398 3.14983,4.33378 5.09521,-1.65496 -3.14864,-4.33329 z"
         style="display:inline;overflow:visible;visibility:visible;fill:none;fill-opacity:1;stroke:#6b4d62;stroke-width:0.264583;stroke-linecap:round;stroke-linejoin:round;stroke-miterlimit:4;stroke-dasharray:none;stroke-dashoffset:0;stroke-opacity:1;marker:none;enable-background:accumulate" />
      <path
         inkscape:connector-curvature="0"
         id="use1842-0"
         d="m 150.98821,161.32045 -9.4e-4,-5.35752 -5.09487,-1.656 2.5e-4,5.35643 z"
         style="display:inline;overflow:visible;visibility:visible;fill:#b6464b;fill-opacity:1;stroke:#6b4d62;stroke-width:0.264583;stroke-linecap:round;stroke-linejoin:round;stroke-miterlimit:4;stroke-dasharray:none;stroke-dashoffset:0;stroke-opacity:1;marker:none;enable-background:accumulate" />
      <path
         inkscape:connector-curvature="0"
         id="use1844-5"
         d="m 150.98821,161.32044 5.09501,-1.65646 5.5e-4,-5.35724 -5.09418,1.65547 z"
         style="display:inline;overflow:visible;visibility:visible;fill:#e15e33;fill-opacity:1;stroke:#6b4d62;stroke-width:0.264583;stroke-linecap:round;stroke-linejoin:round;stroke-miterlimit:4;stroke-dasharray:none;stroke-dashoffset:0;stroke-opacity:1;marker:none;enable-background:accumulate" />
      <path
         inkscape:connector-curvature="0"
         id="use1846-1"
         d="m 150.98449,161.31918 3.14983,4.33377 5.09521,-1.65495 -3.14864,-4.3333 z"
         style="display:inline;overflow:visible;visibility:visible;fill:none;fill-opacity:1;stroke:#6b4d62;stroke-width:0.264583;stroke-linecap:round;stroke-linejoin:round;stroke-miterlimit:4;stroke-dasharray:none;stroke-dashoffset:0;stroke-opacity:1;marker:none;enable-background:accumulate" />
      <path
         inkscape:connector-curvature="0"
         id="use1850-3"
         d="m 142.74204,163.99744 5.0956,1.65467 3.14935,-4.33377 -5.09434,-1.65499 z"
         style="display:inline;overflow:visible;visibility:visible;fill:none;fill-opacity:1;stroke:#6b4d62;stroke-width:0.264583;stroke-linecap:round;stroke-linejoin:round;stroke-miterlimit:4;stroke-dasharray:none;stroke-dashoffset:0;stroke-opacity:1;marker:none;enable-background:accumulate" />
      <path
         inkscape:connector-curvature="0"
         id="use1856-6"
         d="m 164.37046,120.25847 3.14984,4.33377 5.0952,-1.65496 -3.14863,-4.33329 z"
         style="display:inline;overflow:visible;visibility:visible;fill:#852e6d;fill-opacity:1;stroke:#6b4d62;stroke-width:0.264583;stroke-linecap:round;stroke-linejoin:round;stroke-miterlimit:4;stroke-dasharray:none;stroke-dashoffset:0;stroke-opacity:1;marker:none;enable-background:accumulate" />
      <path
         inkscape:connector-curvature="0"
         id="use1858-9"
         d="m 164.37061,128.92777 3.14831,-4.33488 -3.14846,-4.33442 -3.14823,4.33359 z"
         style="display:inline;overflow:visible;visibility:visible;fill:#8e3266;fill-opacity:1;stroke:#6b4d62;stroke-width:0.264583;stroke-linecap:round;stroke-linejoin:round;stroke-miterlimit:4;stroke-dasharray:none;stroke-dashoffset:0;stroke-opacity:1;marker:none;enable-background:accumulate" />
      <path
         inkscape:connector-curvature="0"
         id="use1860-5"
         d="m 156.128,122.93675 5.0956,1.65467 3.14935,-4.33378 -5.09435,-1.65498 z"
         style="display:inline;overflow:visible;visibility:visible;fill:#8e3266;fill-opacity:1;stroke:#6b4d62;stroke-width:0.264583;stroke-linecap:round;stroke-linejoin:round;stroke-miterlimit:4;stroke-dasharray:none;stroke-dashoffset:0;stroke-opacity:1;marker:none;enable-background:accumulate" />
      <path
         inkscape:connector-curvature="0"
         id="use1882-2"
         d="m 164.32706,156.9877 -9.4e-4,-5.35753 -5.09487,-1.656 2.5e-4,5.35643 z"
         style="display:inline;overflow:visible;visibility:visible;fill:#d85b3a;fill-opacity:1;stroke:#6b4d62;stroke-width:0.264583;stroke-linecap:round;stroke-linejoin:round;stroke-miterlimit:4;stroke-dasharray:none;stroke-dashoffset:0;stroke-opacity:1;marker:none;enable-background:accumulate" />
      <path
         inkscape:connector-curvature="0"
         id="use1884-9"
         d="m 164.32706,156.98769 5.09502,-1.65646 5.5e-4,-5.35724 -5.09419,1.65547 z"
         style="display:inline;overflow:visible;visibility:visible;fill:#d15033;fill-opacity:1;stroke:#6b4d62;stroke-width:0.264583;stroke-linecap:round;stroke-linejoin:round;stroke-miterlimit:4;stroke-dasharray:none;stroke-dashoffset:0;stroke-opacity:1;marker:none;enable-background:accumulate" />
      <path
         inkscape:connector-curvature="0"
         id="use1886-9"
         d="m 164.32335,156.98643 3.14984,4.33378 5.0952,-1.65496 -3.14863,-4.33329 z"
         style="display:inline;overflow:visible;visibility:visible;fill:#d84a1f;fill-opacity:1;stroke:#6b4d62;stroke-width:0.264583;stroke-linecap:round;stroke-linejoin:round;stroke-miterlimit:4;stroke-dasharray:none;stroke-dashoffset:0;stroke-opacity:1;marker:none;enable-background:accumulate" />
      <path
         inkscape:connector-curvature="0"
         id="use1888-8"
         d="m 164.3235,165.65572 3.14831,-4.33488 -3.14846,-4.33442 -3.14823,4.33359 z"
         style="display:inline;overflow:visible;visibility:visible;fill:#db4e22;fill-opacity:1;stroke:#6b4d62;stroke-width:0.264583;stroke-linecap:round;stroke-linejoin:round;stroke-miterlimit:4;stroke-dasharray:none;stroke-dashoffset:0;stroke-opacity:1;marker:none;enable-background:accumulate" />
      <path
         inkscape:connector-curvature="0"
         id="use1890-6"
         d="m 156.08091,159.66469 5.0956,1.65467 3.14935,-4.33378 -5.09435,-1.65498 z"
         style="display:inline;overflow:visible;visibility:visible;fill:#da532c;fill-opacity:1;stroke:#6b4d62;stroke-width:0.264583;stroke-linecap:round;stroke-linejoin:round;stroke-miterlimit:4;stroke-dasharray:none;stroke-dashoffset:0;stroke-opacity:1;marker:none;enable-background:accumulate" />
      <path
         inkscape:connector-curvature="0"
         id="use1996-7"
         d="m 172.57317,145.64234 -9.4e-4,-5.35753 -5.09487,-1.656 2.6e-4,5.35643 z"
         style="display:inline;overflow:visible;visibility:visible;fill:#b04d5d;fill-opacity:1;stroke:#6b4d62;stroke-width:0.264583;stroke-linecap:round;stroke-linejoin:round;stroke-miterlimit:4;stroke-dasharray:none;stroke-dashoffset:0;stroke-opacity:1;marker:none;enable-background:accumulate" />
      <path
         inkscape:connector-curvature="0"
         id="use1998-3"
         d="m 172.57317,145.64233 5.09502,-1.65646 5.5e-4,-5.35724 -5.09419,1.65547 z"
         style="display:inline;overflow:visible;visibility:visible;fill:#c24a40;fill-opacity:1;stroke:#6b4d62;stroke-width:0.264583;stroke-linecap:round;stroke-linejoin:round;stroke-miterlimit:4;stroke-dasharray:none;stroke-dashoffset:0;stroke-opacity:1;marker:none;enable-background:accumulate" />
      <path
         inkscape:connector-curvature="0"
         id="use2000-0"
         d="m 172.56961,154.31036 3.14831,-4.33488 -3.14846,-4.33442 -3.14823,4.33359 z"
         style="display:inline;overflow:visible;visibility:visible;fill:#c24a40;fill-opacity:1;stroke:#6b4d62;stroke-width:0.264583;stroke-linecap:round;stroke-linejoin:round;stroke-miterlimit:4;stroke-dasharray:none;stroke-dashoffset:0;stroke-opacity:1;marker:none;enable-background:accumulate" />
      <path
         inkscape:connector-curvature="0"
         id="use2002-6"
         d="m 164.32701,148.31934 5.0956,1.65467 3.14935,-4.33378 -5.09434,-1.65498 z"
         style="display:inline;overflow:visible;visibility:visible;fill:#c95647;fill-opacity:1;stroke:#6b4d62;stroke-width:0.264583;stroke-linecap:round;stroke-linejoin:round;stroke-miterlimit:4;stroke-dasharray:none;stroke-dashoffset:0;stroke-opacity:1;marker:none;enable-background:accumulate" />
      <path
         id="use2028-5"
         d="m 169.47033,149.94543 -5.09501,1.65648 -5.09635,-1.6563 5.09581,-1.65727 z"
         style="display:inline;overflow:visible;visibility:visible;fill:#d85b3a;fill-opacity:1;stroke:#6b4d62;stroke-width:0.264583;stroke-linecap:round;stroke-linejoin:round;stroke-miterlimit:4;stroke-dasharray:none;stroke-dashoffset:0;stroke-opacity:1;marker:none;enable-background:accumulate"
         inkscape:connector-curvature="0" />
      <path
         id="use2030-4"
         d="m 167.52349,124.57002 9.6e-4,5.35752 -3.15009,4.3351 -0.001,-5.35853 z"
         style="display:inline;overflow:visible;visibility:visible;fill:#93518d;fill-opacity:1;stroke:#6b4d62;stroke-width:0.264583;stroke-linecap:round;stroke-linejoin:round;stroke-miterlimit:4;stroke-dasharray:none;stroke-dashoffset:0;stroke-opacity:1;marker:none;enable-background:accumulate"
         inkscape:connector-curvature="0" />
      <path
         id="use2032-8"
         d="m 159.27433,149.96545 9.5e-4,5.35753 -3.15008,4.33509 -0.001,-5.35853 z"
         style="display:inline;overflow:visible;visibility:visible;fill:#d85b3a;fill-opacity:1;stroke:#6b4d62;stroke-width:0.264583;stroke-linecap:round;stroke-linejoin:round;stroke-miterlimit:4;stroke-dasharray:none;stroke-dashoffset:0;stroke-opacity:1;marker:none;enable-background:accumulate"
         inkscape:connector-curvature="0" />
      <path
         id="use2034-3"
         d="m 159.2659,149.9623 -5.09561,1.65466 -3.14949,4.33553 5.09672,-1.65449 z"
         style="display:inline;overflow:visible;visibility:visible;fill:#e46e47;fill-opacity:1;stroke:#6b4d62;stroke-width:0.264583;stroke-linecap:round;stroke-linejoin:round;stroke-miterlimit:4;stroke-dasharray:none;stroke-dashoffset:0;stroke-opacity:1;marker:none;enable-background:accumulate"
         inkscape:connector-curvature="0" />
      <path
         id="use2036-9"
         d="m 167.51944,143.97526 -5.0956,1.65466 -3.14949,4.33553 5.09671,-1.65449 z"
         style="display:inline;overflow:visible;visibility:visible;fill:#d56954;fill-opacity:1;stroke:#6b4d62;stroke-width:0.264583;stroke-linecap:round;stroke-linejoin:round;stroke-miterlimit:4;stroke-dasharray:none;stroke-dashoffset:0;stroke-opacity:1;marker:none;enable-background:accumulate"
         inkscape:connector-curvature="0" />
      <path
         id="use2042-8"
         d="m 161.23832,124.57097 3.14984,4.33377 -3.7e-4,5.35874 -3.15084,-4.33428 z"
         style="display:inline;overflow:visible;visibility:visible;fill:#904179;fill-opacity:1;stroke:#6b4d62;stroke-width:0.264583;stroke-linecap:round;stroke-linejoin:round;stroke-miterlimit:4;stroke-dasharray:none;stroke-dashoffset:0;stroke-opacity:1;marker:none;enable-background:accumulate"
         inkscape:connector-curvature="0" />
      <path
         id="use2046-8"
         d="m 147.88644,165.63591 -5.09501,1.65648 -5.09635,-1.65629 5.09581,-1.65727 z"
         style="display:inline;overflow:visible;visibility:visible;fill:none;fill-opacity:1;stroke:#6b4d62;stroke-width:0.264583;stroke-linecap:round;stroke-linejoin:round;stroke-miterlimit:4;stroke-dasharray:none;stroke-dashoffset:0;stroke-opacity:1;marker:none;enable-background:accumulate"
         inkscape:connector-curvature="0" />
      <path
         id="use2048-0"
         d="m 121.18482,165.63811 -5.09501,1.65648 -5.09635,-1.6563 5.09581,-1.65726 z"
         style="display:inline;overflow:visible;visibility:visible;fill:none;fill-opacity:1;stroke:#6b4d62;stroke-width:0.264583;stroke-linecap:round;stroke-linejoin:round;stroke-miterlimit:4;stroke-dasharray:none;stroke-dashoffset:0;stroke-opacity:1;marker:none;enable-background:accumulate"
         inkscape:connector-curvature="0" />
      <path
         id="use2050-2"
         d="m 121.1852,165.62911 -3.1483,-4.33489 -5.09658,-1.65559 3.14848,4.336 z"
         style="display:inline;overflow:visible;visibility:visible;fill:none;fill-opacity:1;stroke:#6b4d62;stroke-width:0.264583;stroke-linecap:round;stroke-linejoin:round;stroke-miterlimit:4;stroke-dasharray:none;stroke-dashoffset:0;stroke-opacity:1;marker:none;enable-background:accumulate"
         inkscape:connector-curvature="0" />
      <path
         id="use2058-6"
         d="m 145.94331,159.65863 -3.1483,4.33489 -5.09658,1.65559 3.14848,-4.336 z"
         style="display:inline;overflow:visible;visibility:visible;fill:none;fill-opacity:1;stroke:#6b4d62;stroke-width:0.264583;stroke-linecap:round;stroke-linejoin:round;stroke-miterlimit:4;stroke-dasharray:none;stroke-dashoffset:0;stroke-opacity:1;marker:none;enable-background:accumulate"
         inkscape:connector-curvature="0" />
      <path
         id="use2122-9"
         d="m 182.80731,145.62892 -5.09502,-1.65647 -5.09635,1.65629 5.09581,1.65727 z"
         style="display:inline;overflow:visible;visibility:visible;fill:#c24a40;fill-opacity:1;stroke:#6b4d62;stroke-width:0.264583;stroke-linecap:round;stroke-linejoin:round;stroke-miterlimit:4;stroke-dasharray:none;stroke-dashoffset:0;stroke-opacity:1;marker:none;enable-background:accumulate"
         inkscape:connector-curvature="0" />
      <path
         id="use2124-1"
         d="m 180.86005,151.6209 -3.1483,-4.33489 -5.09658,-1.65559 3.14848,4.336 z"
         style="display:inline;overflow:visible;visibility:visible;fill:#cd492f;fill-opacity:1;stroke:#6b4d62;stroke-width:0.264583;stroke-linecap:round;stroke-linejoin:round;stroke-miterlimit:4;stroke-dasharray:none;stroke-dashoffset:0;stroke-opacity:1;marker:none;enable-background:accumulate"
         inkscape:connector-curvature="0" />
      <path
         inkscape:connector-curvature="0"
         id="use2126-1"
         d="m 185.95647,149.96642 -3.14983,-4.33377 -5.09521,1.65495 3.14864,4.3333 z"
         style="display:inline;overflow:visible;visibility:visible;fill:#c8412a;fill-opacity:1;stroke:#6b4d62;stroke-width:0.264583;stroke-linecap:round;stroke-linejoin:round;stroke-miterlimit:4;stroke-dasharray:none;stroke-dashoffset:0;stroke-opacity:1;marker:none;enable-background:accumulate" />
      <path
         inkscape:connector-curvature="0"
         id="use2128-1"
         d="m 182.80784,145.62955 -9.4e-4,-5.35752 -5.09487,-1.656 2.6e-4,5.35643 z"
         style="display:inline;overflow:visible;visibility:visible;fill:#a94156;fill-opacity:1;stroke:#6b4d62;stroke-width:0.264583;stroke-linecap:round;stroke-linejoin:round;stroke-miterlimit:4;stroke-dasharray:none;stroke-dashoffset:0;stroke-opacity:1;marker:none;enable-background:accumulate" />
      <path
         inkscape:connector-curvature="0"
         id="use2130-4"
         d="m 180.86007,151.62089 -5.0956,-1.65467 -3.14935,4.33378 5.09434,1.65498 z"
         style="display:inline;overflow:visible;visibility:visible;fill:#d34724;fill-opacity:1;stroke:#6b4d62;stroke-width:0.264583;stroke-linecap:round;stroke-linejoin:round;stroke-miterlimit:4;stroke-dasharray:none;stroke-dashoffset:0;stroke-opacity:1;marker:none;enable-background:accumulate" />
      <path
         inkscape:connector-curvature="0"
         id="use2132-6"
         d="m 185.95305,135.93796 -5.0956,-1.65467 -3.14935,4.33377 5.09434,1.65499 z"
         style="display:inline;overflow:visible;visibility:visible;fill:#a53a51;fill-opacity:1;stroke:#6b4d62;stroke-width:0.264583;stroke-linecap:round;stroke-linejoin:round;stroke-miterlimit:4;stroke-dasharray:none;stroke-dashoffset:0;stroke-opacity:1;marker:none;enable-background:accumulate" />
      <path
         inkscape:connector-curvature="0"
         id="use2134-3"
         d="m 177.6928,161.33689 -9.4e-4,-5.35752 -5.09487,-1.656 2.5e-4,5.35642 z"
         style="display:inline;overflow:visible;visibility:visible;fill:#d6471e;fill-opacity:1;stroke:#6b4d62;stroke-width:0.264583;stroke-linecap:round;stroke-linejoin:round;stroke-miterlimit:4;stroke-dasharray:none;stroke-dashoffset:0;stroke-opacity:1;marker:none;enable-background:accumulate" />
      <path
         inkscape:connector-curvature="0"
         id="use2136-3"
         d="m 185.95569,149.96463 3.14831,-4.33488 -3.14846,-4.33442 -3.14823,4.33359 z"
         style="display:inline;overflow:visible;visibility:visible;fill:none;fill-opacity:1;stroke:#6b4d62;stroke-width:0.264583;stroke-linecap:round;stroke-linejoin:round;stroke-miterlimit:4;stroke-dasharray:none;stroke-dashoffset:0;stroke-opacity:1;marker:none;enable-background:accumulate" />
      <path
         inkscape:connector-curvature="0"
         id="use2138-5"
         d="m 180.8609,156.98011 5.09502,-1.65646 5.4e-4,-5.35724 -5.09418,1.65547 z"
         style="display:inline;overflow:visible;visibility:visible;fill:#d14522;fill-opacity:1;stroke:#6b4d62;stroke-width:0.264583;stroke-linecap:round;stroke-linejoin:round;stroke-miterlimit:4;stroke-dasharray:none;stroke-dashoffset:0;stroke-opacity:1;marker:none;enable-background:accumulate" />
      <path
         id="use2140-4"
         d="m 177.6928,161.33688 -9.5e-4,-5.35753 3.15009,-4.33509 0.001,5.35852 z"
         style="display:inline;overflow:visible;visibility:visible;fill:#d6471e;fill-opacity:1;stroke:#6b4d62;stroke-width:0.264583;stroke-linecap:round;stroke-linejoin:round;stroke-miterlimit:4;stroke-dasharray:none;stroke-dashoffset:0;stroke-opacity:1;marker:none;enable-background:accumulate"
         inkscape:connector-curvature="0" />
      <path
         id="use2142-2"
         d="m 189.10537,145.6291 -3.14985,-4.33377 3.7e-4,-5.35874 3.15085,4.33428 z"
         style="display:inline;overflow:visible;visibility:visible;fill:none;fill-opacity:1;stroke:#6b4d62;stroke-width:0.264583;stroke-linecap:round;stroke-linejoin:round;stroke-miterlimit:4;stroke-dasharray:none;stroke-dashoffset:0;stroke-opacity:1;marker:none;enable-background:accumulate"
         inkscape:connector-curvature="0" />
      <path
         id="use2144-9"
         d="m 177.69509,161.33767 3.1483,-4.33489 5.09658,-1.65559 -3.14848,4.336 z"
         style="display:inline;overflow:visible;visibility:visible;fill:#d6461e;fill-opacity:1;stroke:#6b4d62;stroke-width:0.264583;stroke-linecap:round;stroke-linejoin:round;stroke-miterlimit:4;stroke-dasharray:none;stroke-dashoffset:0;stroke-opacity:1;marker:none;enable-background:accumulate"
         inkscape:connector-curvature="0" />
      <path
         id="use2146-7"
         d="m 182.80342,145.62956 -9.6e-4,-5.35753 3.15009,-4.33509 0.001,5.35852 z"
         style="display:inline;overflow:visible;visibility:visible;fill:none;fill-opacity:1;stroke:#6b4d62;stroke-width:0.264583;stroke-linecap:round;stroke-linejoin:round;stroke-miterlimit:4;stroke-dasharray:none;stroke-dashoffset:0;stroke-opacity:1;marker:none;enable-background:accumulate"
         inkscape:connector-curvature="0" />
      <path
         id="use2238-7"
         d="m 172.55691,159.69083 -3.14984,-4.33376 3.7e-4,-5.35874 3.15084,4.33428 z"
         style="display:inline;overflow:visible;visibility:visible;fill:#d64c27;fill-opacity:1;stroke:#6b4d62;stroke-width:0.264583;stroke-linecap:round;stroke-linejoin:round;stroke-miterlimit:4;stroke-dasharray:none;stroke-dashoffset:0;stroke-opacity:1;marker:none;enable-background:accumulate"
         inkscape:connector-curvature="0" />
      <path
         id="use2240-1"
         d="m 180.81711,134.29433 -3.1483,4.33489 -5.09658,1.65559 3.14848,-4.336 z"
         style="display:inline;overflow:visible;visibility:visible;fill:#a94156;fill-opacity:1;stroke:#6b4d62;stroke-width:0.264583;stroke-linecap:round;stroke-linejoin:round;stroke-miterlimit:4;stroke-dasharray:none;stroke-dashoffset:0;stroke-opacity:1;marker:none;enable-background:accumulate"
         inkscape:connector-curvature="0" />
      <path
         id="use2266-8"
         d="m 174.54508,165.67315 -5.09501,1.65648 -5.09635,-1.6563 5.09581,-1.65726 z"
         style="display:inline;overflow:visible;visibility:visible;fill:none;fill-opacity:1;stroke:#6b4d62;stroke-width:0.264583;stroke-linecap:round;stroke-linejoin:round;stroke-miterlimit:4;stroke-dasharray:none;stroke-dashoffset:0;stroke-opacity:1;marker:none;enable-background:accumulate"
         inkscape:connector-curvature="0" />
      <path
         id="use2268-0"
         d="m 172.59723,159.67979 -3.1483,4.33489 -5.09658,1.65559 3.14848,-4.336 z"
         style="display:inline;overflow:visible;visibility:visible;fill:none;fill-opacity:1;stroke:#6b4d62;stroke-width:0.264583;stroke-linecap:round;stroke-linejoin:round;stroke-miterlimit:4;stroke-dasharray:none;stroke-dashoffset:0;stroke-opacity:1;marker:none;enable-background:accumulate"
         inkscape:connector-curvature="0" />
      <path
         id="use2270-9"
         d="m 156.12522,159.65807 5.09561,1.65466 3.14949,4.33553 -5.09672,-1.65449 z"
         style="display:inline;overflow:visible;visibility:visible;fill:none;fill-opacity:1;stroke:#6b4d62;stroke-width:0.264583;stroke-linecap:round;stroke-linejoin:round;stroke-miterlimit:4;stroke-dasharray:none;stroke-dashoffset:0;stroke-opacity:1;marker:none;enable-background:accumulate"
         inkscape:connector-curvature="0" />
      <path
         id="use2272-3"
         d="m 154.17823,165.65175 5.09501,-1.65647 5.09636,1.65629 -5.09582,1.65727 z"
         style="display:inline;overflow:visible;visibility:visible;fill:none;fill-opacity:1;stroke:#6b4d62;stroke-width:0.264583;stroke-linecap:round;stroke-linejoin:round;stroke-miterlimit:4;stroke-dasharray:none;stroke-dashoffset:0;stroke-opacity:1;marker:none;enable-background:accumulate"
         inkscape:connector-curvature="0" />
      <path
         inkscape:connector-curvature="0"
         id="use2278-3"
         d="m 177.70674,115.96835 -5.0956,-1.65467 -3.14935,4.33378 5.09435,1.65499 z"
         style="display:inline;overflow:visible;visibility:visible;fill:none;fill-opacity:1;stroke:#6b4d62;stroke-width:0.264583;stroke-linecap:round;stroke-linejoin:round;stroke-miterlimit:4;stroke-dasharray:none;stroke-dashoffset:0;stroke-opacity:1;marker:none;enable-background:accumulate" />
      <path
         inkscape:connector-curvature="0"
         id="use2282-8"
         d="m 177.70903,124.64066 3.14831,-4.33488 -3.14846,-4.33442 -3.14823,4.33359 z"
         style="display:inline;overflow:visible;visibility:visible;fill:#7a246c;fill-opacity:1;stroke:#6b4d62;stroke-width:0.264583;stroke-linecap:round;stroke-linejoin:round;stroke-miterlimit:4;stroke-dasharray:none;stroke-dashoffset:0;stroke-opacity:1;marker:none;enable-background:accumulate" />
      <path
         id="use2292-2"
         d="m 191.0608,120.31463 -5.09502,-1.65647 -5.09635,1.65629 5.09581,1.65727 z"
         style="display:inline;overflow:visible;visibility:visible;fill:none;fill-opacity:1;stroke:#6b4d62;stroke-width:0.264583;stroke-linecap:round;stroke-linejoin:round;stroke-miterlimit:4;stroke-dasharray:none;stroke-dashoffset:0;stroke-opacity:1;marker:none;enable-background:accumulate"
         inkscape:connector-curvature="0" />
      <path
         inkscape:connector-curvature="0"
         id="use2294-4"
         d="m 185.96525,121.97173 -5.0956,-1.65467 -3.14935,4.33377 5.09434,1.65499 z"
         style="display:inline;overflow:visible;visibility:visible;fill:#7b256d;fill-opacity:1;stroke:#6b4d62;stroke-width:0.264583;stroke-linecap:round;stroke-linejoin:round;stroke-miterlimit:4;stroke-dasharray:none;stroke-dashoffset:0;stroke-opacity:1;marker:none;enable-background:accumulate" />
      <path
         id="use2300-8"
         d="m 185.96538,130.64101 -5.09561,-1.65466 -3.14949,-4.33553 5.09672,1.65449 z"
         style="display:inline;overflow:visible;visibility:visible;fill:#7b2770;fill-opacity:1;stroke:#6b4d62;stroke-width:0.264583;stroke-linecap:round;stroke-linejoin:round;stroke-miterlimit:4;stroke-dasharray:none;stroke-dashoffset:0;stroke-opacity:1;marker:none;enable-background:accumulate"
         inkscape:connector-curvature="0" />
      <path
         id="use2310-9"
         d="m 169.47269,118.6629 5.09561,1.65465 3.14949,4.33553 -5.09672,-1.65448 z"
         style="display:inline;overflow:visible;visibility:visible;fill:#7f286d;fill-opacity:1;stroke:#6b4d62;stroke-width:0.264583;stroke-linecap:round;stroke-linejoin:round;stroke-miterlimit:4;stroke-dasharray:none;stroke-dashoffset:0;stroke-opacity:1;marker:none;enable-background:accumulate"
         inkscape:connector-curvature="0" />
      <path
         id="use2312-1"
         d="m 167.52572,124.65659 5.09501,-1.65648 5.09635,1.6563 -5.09581,1.65726 z"
         style="display:inline;overflow:visible;visibility:visible;fill:#7f286d;fill-opacity:1;stroke:#6b4d62;stroke-width:0.264583;stroke-linecap:round;stroke-linejoin:round;stroke-miterlimit:4;stroke-dasharray:none;stroke-dashoffset:0;stroke-opacity:1;marker:none;enable-background:accumulate"
         inkscape:connector-curvature="0" />
      <path
         inkscape:connector-curvature="0"
         id="use2430-8"
         d="m 177.70091,161.3805 -5.0956,-1.65467 -3.14935,4.33377 5.09434,1.65499 z"
         style="display:inline;overflow:visible;visibility:visible;fill:none;fill-opacity:1;stroke:#6b4d62;stroke-width:0.264583;stroke-linecap:round;stroke-linejoin:round;stroke-miterlimit:4;stroke-dasharray:none;stroke-dashoffset:0;stroke-opacity:1;marker:none;enable-background:accumulate" />
      <path
         inkscape:connector-curvature="0"
         id="use2432-8"
         d="m 180.8698,128.98637 9.4e-4,5.35752 5.09487,1.656 -2.6e-4,-5.35643 z"
         style="display:inline;overflow:visible;visibility:visible;fill:#7c2b75;fill-opacity:1;stroke:#6b4d62;stroke-width:0.264583;stroke-linecap:round;stroke-linejoin:round;stroke-miterlimit:4;stroke-dasharray:none;stroke-dashoffset:0;stroke-opacity:1;marker:none;enable-background:accumulate" />
      <path
         inkscape:connector-curvature="0"
         id="use2908-3"
         d="m 172.62221,131.6712 -9.4e-4,-5.35753 -5.09487,-1.656 2.6e-4,5.35643 z"
         style="display:inline;overflow:visible;visibility:visible;fill:#852e6d;fill-opacity:1;stroke:#6b4d62;stroke-width:0.264583;stroke-linecap:round;stroke-linejoin:round;stroke-miterlimit:4;stroke-dasharray:none;stroke-dashoffset:0;stroke-opacity:1;marker:none;enable-background:accumulate" />
      <path
         inkscape:connector-curvature="0"
         id="use1716-5"
         d="m 164.34237,134.27154 -5.09502,1.65646 -5.4e-4,5.35724 5.09418,-1.65547 z"
         style="display:inline;overflow:visible;visibility:visible;fill:#b16986;fill-opacity:1;stroke:#6b4d62;stroke-width:0.264583;stroke-linecap:round;stroke-linejoin:round;stroke-miterlimit:4;stroke-dasharray:none;stroke-dashoffset:0;stroke-opacity:1;marker:none;enable-background:accumulate" />
      <path
         inkscape:connector-curvature="0"
         id="use1718-6"
         d="m 167.49159,143.96648 -3.14983,-4.33378 -5.09521,1.65496 3.14864,4.33329 z"
         style="display:inline;overflow:visible;visibility:visible;fill:#bc6069;fill-opacity:1;stroke:#6b4d62;stroke-width:0.264583;stroke-linecap:round;stroke-linejoin:round;stroke-miterlimit:4;stroke-dasharray:none;stroke-dashoffset:0;stroke-opacity:1;marker:none;enable-background:accumulate" />
      <path
         inkscape:connector-curvature="0"
         id="use1894-6"
         d="m 172.6161,131.60575 5.09502,-1.65646 5.5e-4,-5.35724 -5.09419,1.65547 z"
         style="display:inline;overflow:visible;visibility:visible;fill:#863475;fill-opacity:1;stroke:#6b4d62;stroke-width:0.264583;stroke-linecap:round;stroke-linejoin:round;stroke-miterlimit:4;stroke-dasharray:none;stroke-dashoffset:0;stroke-opacity:1;marker:none;enable-background:accumulate" />
      <path
         inkscape:connector-curvature="0"
         id="use1896-3"
         d="m 172.6124,131.60448 3.14984,4.33378 5.09521,-1.65496 -3.14864,-4.33329 z"
         style="display:inline;overflow:visible;visibility:visible;fill:#873e81;fill-opacity:1;stroke:#6b4d62;stroke-width:0.264583;stroke-linecap:round;stroke-linejoin:round;stroke-miterlimit:4;stroke-dasharray:none;stroke-dashoffset:0;stroke-opacity:1;marker:none;enable-background:accumulate" />
      <path
         inkscape:connector-curvature="0"
         id="use1898-7"
         d="m 172.61255,140.27377 3.14831,-4.33488 -3.14846,-4.33442 -3.14823,4.33359 z"
         style="display:inline;overflow:visible;visibility:visible;fill:#b04c5c;fill-opacity:1;stroke:#6b4d62;stroke-width:0.264583;stroke-linecap:round;stroke-linejoin:round;stroke-miterlimit:4;stroke-dasharray:none;stroke-dashoffset:0;stroke-opacity:1;marker:none;enable-background:accumulate" />
      <path
         inkscape:connector-curvature="0"
         id="use1900-0"
         d="m 164.36994,134.28275 5.0956,1.65467 3.14935,-4.33378 -5.09434,-1.65498 z"
         style="display:inline;overflow:visible;visibility:visible;fill:#904179;fill-opacity:1;stroke:#6b4d62;stroke-width:0.264583;stroke-linecap:round;stroke-linejoin:round;stroke-miterlimit:4;stroke-dasharray:none;stroke-dashoffset:0;stroke-opacity:1;marker:none;enable-background:accumulate" />
      <path
         id="use2038-1"
         d="m 164.38344,134.22704 5.09561,1.65466 3.14949,4.33553 -5.09672,-1.65449 z"
         style="display:inline;overflow:visible;visibility:visible;fill:#93518d;fill-opacity:1;stroke:#6b4d62;stroke-width:0.264583;stroke-linecap:round;stroke-linejoin:round;stroke-miterlimit:4;stroke-dasharray:none;stroke-dashoffset:0;stroke-opacity:1;marker:none;enable-background:accumulate"
         inkscape:connector-curvature="0" />
      <path
         id="use2040-9"
         d="m 164.36995,134.28274 3.14985,4.33377 -3.7e-4,5.35874 -3.15085,-4.33428 z"
         style="display:inline;overflow:visible;visibility:visible;fill:#a771a2;fill-opacity:1;stroke:#6b4d62;stroke-width:0.264583;stroke-linecap:round;stroke-linejoin:round;stroke-miterlimit:4;stroke-dasharray:none;stroke-dashoffset:0;stroke-opacity:1;marker:none;enable-background:accumulate"
         inkscape:connector-curvature="0" />
      <path
         id="use2298-9"
         d="m 180.86727,134.3456 -3.14984,-4.33376 3.7e-4,-5.35874 3.15084,4.33428 z"
         style="display:inline;overflow:visible;visibility:visible;fill:#80327a;fill-opacity:1;stroke:#6b4d62;stroke-width:0.264583;stroke-linecap:round;stroke-linejoin:round;stroke-miterlimit:4;stroke-dasharray:none;stroke-dashoffset:0;stroke-opacity:1;marker:none;enable-background:accumulate"
         inkscape:connector-curvature="0" />
      <path
         inkscape:connector-curvature="0"
         id="use2916-8"
         d="m 167.49159,143.96648 -3.14983,-4.33378 -5.09521,1.65496 3.14864,4.33329 z"
         style="display:inline;overflow:visible;visibility:visible;fill:#bc6069;fill-opacity:1;stroke:#6b4d62;stroke-width:0.264583;stroke-linecap:round;stroke-linejoin:round;stroke-miterlimit:4;stroke-dasharray:none;stroke-dashoffset:0;stroke-opacity:1;marker:none;enable-background:accumulate" />
    </g>
    <rect
       y="116.14882"
       x="-122.79007"
       height="38.331436"
       width="70.201416"
       id="rect4174"
       style="fill:url(#linearGradient4190);fill-opacity:1;stroke:none;stroke-width:0.2;stroke-opacity:1"
       inkscape:export-xdpi="578.89001"
       inkscape:export-ydpi="578.89001"
       transform="scale(-1,1)" />
    <path
       inkscape:connector-curvature="0"
       id="path4201"
       d="m 53.49429,116.43534 0.83495,-0.27902 -0.86791,-0.004 -0.87268,-0.004 0.006,0.56971 c 0.0182,-0.003 0.43999,-0.1301 0.8992,-0.28363 z"
       style="fill:#bc91b5;fill-opacity:1;stroke:none;stroke-width:0.2;stroke-opacity:1"
       sodipodi:nodetypes="ccccccc"
       inkscape:export-xdpi="578.89001"
       inkscape:export-ydpi="578.89001" />
    <path
       sodipodi:nodetypes="cccccc"
       inkscape:export-ydpi="578.89001"
       inkscape:export-xdpi="578.89001"
       style="display:inline;overflow:visible;visibility:visible;fill:#85377d;fill-opacity:1;stroke:#000000;stroke-width:0.264583;stroke-linecap:round;stroke-linejoin:round;stroke-miterlimit:4;stroke-dasharray:none;stroke-dashoffset:0;stroke-opacity:1;marker:none;enable-background:accumulate"
       d="m 95.829709,141.49695 0.0099,-5.34028 5.094871,-1.656 m 0,0 -2.6e-4,5.35643 -5.104511,1.63985"
       id="path1629"
       inkscape:connector-curvature="0" />
    <path
       sodipodi:nodetypes="ccccc"
       inkscape:export-ydpi="578.89001"
       inkscape:export-xdpi="578.89001"
       style="display:inline;overflow:visible;visibility:visible;fill:#c9a6c5;fill-opacity:1;stroke:#000000;stroke-width:0.264583;stroke-linecap:round;stroke-linejoin:round;stroke-miterlimit:4;stroke-dasharray:none;stroke-dashoffset:0;stroke-opacity:1;marker:none;enable-background:accumulate"
       d="m 100.93442,134.50069 -5.095591,1.65467 -3.14935,-4.33378 5.09434,-1.65498 3.150601,4.33409"
       id="path1631"
       inkscape:connector-curvature="0" />
    <path
       sodipodi:nodetypes="ccccc"
       inkscape:export-ydpi="578.89001"
       inkscape:export-xdpi="578.89001"
       style="display:inline;overflow:visible;visibility:visible;fill:#85377d;fill-opacity:1;stroke:#000000;stroke-width:0.264583;stroke-linecap:round;stroke-linejoin:round;stroke-miterlimit:4;stroke-dasharray:none;stroke-dashoffset:0;stroke-opacity:1;marker:none;enable-background:accumulate"
       d="m 79.34784,141.51256 5.094188,-1.65547 0.0014,-5.35823 -5.095018,1.65646 -5.6e-4,5.35724"
       id="path1633"
       inkscape:connector-curvature="0" />
    <path
       sodipodi:nodetypes="ccccc"
       inkscape:export-ydpi="578.89001"
       inkscape:export-xdpi="578.89001"
       style="display:inline;overflow:visible;visibility:visible;fill:#c9a6c5;fill-opacity:1;stroke:#000000;stroke-width:0.264583;stroke-linecap:round;stroke-linejoin:round;stroke-miterlimit:4;stroke-dasharray:none;stroke-dashoffset:0;stroke-opacity:1;marker:none;enable-background:accumulate"
       d="m 84.443398,134.49885 -3.149828,-4.33377 -5.07662,1.65574 3.13005,4.33251 z"
       id="path1635"
       inkscape:connector-curvature="0" />
    <path
       inkscape:export-ydpi="578.89001"
       inkscape:export-xdpi="578.89001"
       style="display:inline;overflow:visible;visibility:visible;fill:#c9a6c5;fill-opacity:1;stroke:#000000;stroke-width:0.265;stroke-linecap:round;stroke-linejoin:round;stroke-miterlimit:4;stroke-dasharray:none;stroke-dashoffset:0;stroke-opacity:1;marker:none;enable-background:accumulate"
       d="m 92.688279,131.82367 -5.095601,-1.65467 -3.14935,4.33378 5.09434,1.65498 z"
       id="path1637"
       inkscape:connector-curvature="0" />
    <path
       sodipodi:nodetypes="cccccc"
       inkscape:export-ydpi="578.89001"
       inkscape:export-xdpi="578.89001"
       style="display:inline;overflow:visible;visibility:visible;fill:#a0649a;fill-opacity:1;stroke:#000000;stroke-width:0.264583;stroke-linecap:round;stroke-linejoin:round;stroke-miterlimit:4;stroke-dasharray:none;stroke-dashoffset:0;stroke-opacity:1;marker:none;enable-background:accumulate"
       d="m 89.53758,141.51418 -9.53e-4,-5.35753 -5.09487,-1.656 2.6e-4,5.35643 m 0,0 5.09555,1.6571"
       id="path1639"
       inkscape:connector-curvature="0" />
    <path
       sodipodi:nodetypes="ccccc"
       inkscape:export-ydpi="578.89001"
       inkscape:export-xdpi="578.89001"
       inkscape:connector-curvature="0"
       style="display:inline;overflow:visible;visibility:visible;fill:#ad7aa9;fill-opacity:1;stroke:#000000;stroke-width:0.264583;stroke-linecap:butt;stroke-linejoin:round;stroke-miterlimit:4;stroke-dasharray:none;stroke-dashoffset:0;stroke-opacity:1;marker:none;enable-background:accumulate"
       d="m 95.829709,141.49695 9.5e-4,-5.35753 -3.15009,-4.33509 -0.001,5.35853 3.15014,4.33409"
       id="path1641" />
    <path
       sodipodi:nodetypes="ccccc"
       inkscape:export-ydpi="578.89001"
       inkscape:export-xdpi="578.89001"
       inkscape:connector-curvature="0"
       style="display:inline;overflow:visible;visibility:visible;fill:#77216f;fill-opacity:1;stroke:#000000;stroke-width:0.264583;stroke-linecap:round;stroke-linejoin:round;stroke-miterlimit:4;stroke-dasharray:none;stroke-dashoffset:0;stroke-opacity:1;marker:none;enable-background:accumulate"
       d="m 89.539328,141.50161 3.149851,-4.33377 -3.7e-4,-5.35874 -3.150851,4.33428 0.0014,5.35823"
       id="path1643" />
    <path
       sodipodi:nodetypes="cccccc"
       inkscape:export-ydpi="578.89001"
       inkscape:export-xdpi="578.89001"
       inkscape:connector-curvature="0"
       style="display:inline;overflow:visible;visibility:visible;fill:#ad7aa9;fill-opacity:1;stroke:#000000;stroke-width:0.264583;stroke-linecap:round;stroke-linejoin:round;stroke-miterlimit:4;stroke-dasharray:none;stroke-dashoffset:0;stroke-opacity:1;marker:none;enable-background:accumulate"
       d="m 79.34786,141.51256 0.0192,-5.35664 -3.15009,-4.3351 -0.001,5.35853 m 0,0 3.13191,4.33321"
       id="path1645" />
  </g>
</svg>
